[2017-05-31 17:25:40.066] - 4592 INFO [restartedMain] --- org.apache.catalina.core.StandardService: Starting service Tomcat
[2017-05-31 17:25:40.082] - 4592 INFO [restartedMain] --- org.apache.catalina.core.StandardEngine: Starting Servlet Engine: Apache Tomcat/8.5.14
[2017-05-31 17:25:41.076] - 4592 INFO [localhost-startStop-1] --- org.apache.jasper.servlet.TldScanner: At least one JAR was scanned for TLDs yet contained no TLDs. Enable debug logging for this logger for a complete list of JARs that were scanned but no TLDs were found in them. Skipping unneeded JARs during scanning can improve startup time and JSP compilation time.
[2017-05-31 17:25:41.108] - 4592 INFO [localhost-startStop-1] --- org.apache.catalina.core.ContainerBase.[Tomcat].[localhost].[/]: Initializing Spring embedded WebApplicationContext
[2017-05-31 17:26:56.115] - 4592 INFO [http-nio-8080-exec-4] --- org.apache.catalina.core.ContainerBase.[Tomcat].[localhost].[/]: Initializing Spring FrameworkServlet 'dispatcherServlet'
[2017-05-31 17:34:36.548] - 4592 INFO [RMI TCP Connection(2)-192.168.1.7] --- org.apache.catalina.core.StandardService: Stopping service Tomcat
[2017-05-31 17:34:36.548] - 4592 INFO [localhost-startStop-2] --- org.apache.catalina.core.ContainerBase.[Tomcat].[localhost].[/]: Destroying Spring FrameworkServlet 'dispatcherServlet'
