[2017-05-31 17:35:52.332] - 5460 INFO [restartedMain] --- org.apache.catalina.core.StandardService: Starting service Tomcat
[2017-05-31 17:35:52.349] - 5460 INFO [restartedMain] --- org.apache.catalina.core.StandardEngine: Starting Servlet Engine: Apache Tomcat/8.5.14
[2017-05-31 17:35:53.426] - 5460 INFO [localhost-startStop-1] --- org.apache.jasper.servlet.TldScanner: At least one JAR was scanned for TLDs yet contained no TLDs. Enable debug logging for this logger for a complete list of JARs that were scanned but no TLDs were found in them. Skipping unneeded JARs during scanning can improve startup time and JSP compilation time.
[2017-05-31 17:35:53.458] - 5460 INFO [localhost-startStop-1] --- org.apache.catalina.core.ContainerBase.[Tomcat].[localhost].[/]: Initializing Spring embedded WebApplicationContext
[2017-05-31 17:36:27.129] - 5460 INFO [http-nio-8080-exec-1] --- org.apache.catalina.core.ContainerBase.[Tomcat].[localhost].[/]: Initializing Spring FrameworkServlet 'dispatcherServlet'
[2017-05-31 17:38:49.422] - 5460 INFO [RMI TCP Connection(2)-192.168.1.7] --- org.apache.catalina.core.StandardService: Stopping service Tomcat
[2017-05-31 17:38:49.454] - 5460 INFO [localhost-startStop-2] --- org.apache.catalina.core.ContainerBase.[Tomcat].[localhost].[/]: Destroying Spring FrameworkServlet 'dispatcherServlet'
